{
    "KPlugin": {
        "Authors": [
            {
                "Email": "uwolfer@kde.org",
                "Name": "Urs Wolfer",
                "Name[ca@valencia]": "Urs Wolfer",
                "Name[ca]": "Urs Wolfer",
                "Name[en_GB]": "Urs Wolfer",
                "Name[es]": "Urs Wolfer",
                "Name[fr]": "Urs Wolfer",
                "Name[it]": "Urs Wolfer",
                "Name[ko]": "Urs Wolfer",
                "Name[nl]": "Urs Wolfer",
                "Name[pt]": "Urs Wolfer",
                "Name[pt_BR]": "Urs Wolfer",
                "Name[ro]": "Urs Wolfer",
                "Name[sk]": "Urs Wolfer",
                "Name[sl]": "Urs Wolfer",
                "Name[sv]": "Urs Wolfer",
                "Name[uk]": "Urs Wolfer",
                "Name[x-test]": "xxUrs Wolferxx"
            }
        ],
        "Category": "Service",
        "Description": "Allows managing VNC sessions through KRDC",
        "Description[ca@valencia]": "Permet gestionar sessions VNC mitjançant KRDC",
        "Description[ca]": "Permet gestionar sessions VNC mitjançant el KRDC",
        "Description[en_GB]": "Allows managing VNC sessions through KRDC",
        "Description[es]": "Permite la gestión de sesiones VNC mediante KRDC",
        "Description[fr]": "Permet la gestion de sessions « VNC » grâce à KRDC",
        "Description[it]": "Consente di gestire sessioni VNC con KRDC",
        "Description[ko]": "KRDC를 통해서 VNC 세션 관리하기",
        "Description[nl]": "Staat het beheer van VNC-sessies toe via KRDC",
        "Description[pt]": "Permite gerir as sessões de VNC através do KRDC",
        "Description[pt_BR]": "Permite gerenciar sessões VNC através do KRDC",
        "Description[ro]": "Permite gestiunea sesiunilor VNC prin KRDC",
        "Description[sk]": "Umožňuje spravovanie sedení VNC pomocou aplikácie KRDC",
        "Description[sl]": "Dovoljuje upravljanje sej VNC prek KRDC",
        "Description[sv]": "Tillåter hantering av VNC-sessioner via KRDC",
        "Description[uk]": "Надає змогу керувати сеансами VNC за допомогою KRDC",
        "Description[x-test]": "xxAllows managing VNC sessions through KRDCxx",
        "EnabledByDefault": true,
        "Icon": "krdc",
        "Id": "krdc_vncplugin",
        "License": "GPL",
        "Name": "VNC",
        "Name[ca@valencia]": "VNC",
        "Name[ca]": "VNC",
        "Name[en_GB]": "VNC",
        "Name[es]": "VNC",
        "Name[fr]": "VNC",
        "Name[it]": "VNC",
        "Name[ko]": "VNC",
        "Name[nl]": "VNC",
        "Name[pt]": "VNC",
        "Name[pt_BR]": "VNC",
        "Name[ro]": "VNC",
        "Name[sk]": "VNC",
        "Name[sl]": "VNC",
        "Name[sv]": "VNC",
        "Name[uk]": "VNC",
        "Name[x-test]": "xxVNCxx"
    },
    "X-KDE-ConfigModule": "krdc/kcms/kcm_krdc_vncplugin",
    "X-KDE-KRDC-Sorting": 20
}
